7/15/2019 1:38:06 PM message Debug
7/15/2019 1:38:09 PM message Debug
7/15/2019 1:40:59 PM message Debug
7/15/2019 1:45:27 PM message Debug
7/15/2019 1:46:05 PM message Debug
7/15/2019 1:47:08 PM message Debug
7/15/2019 1:47:51 PM message Debug
7/15/2019 1:48:03 PM message Debug
7/15/2019 1:48:42 PM message Debug
7/15/2019 1:49:10 PM message Debug
7/15/2019 1:49:19 PM message Debug
7/15/2019 1:50:28 PM message Debug
7/15/2019 1:50:46 PM message Debug
7/15/2019 1:50:53 PM message Debug
7/15/2019 1:52:25 PM message Debug
7/15/2019 1:52:50 PM message Debug
7/15/2019 1:53:03 PM message Debug
7/15/2019 1:53:41 PM message Debug
7/15/2019 1:54:15 PM message Debug
7/15/2019 1:54:30 PM message Debug
7/15/2019 1:55:05 PM message Debug
7/15/2019 2:02:50 PM message Debug
7/15/2019 2:04:25 PM message Debug
